Boosting Algorithm (AdaBoost and XGBoost)
…
The model prediction will help hotel to predict the guest will cancel or not cancel the booking hotel. We will remove variables agent and company because there are have a lot of levels, and also we remove reservation_status and reservation_status_date.

booking <- booking %>% 
          select(-c(reservation_status_date, agent, company,
                    reservation_status)) %>% 
          mutate(is_canceled = as.factor(is_canceled))

Exploratory Data Analysis

Before we go further, we need to check if there are any missing values in data. We can used inspect_na() function from inspectdf package to check the missing value.

booking %>% 
  inspect_na()

#> # A tibble: 28 x 3
#>    col_name                    cnt    pcnt
#>    <chr>                     <int>   <dbl>
#>  1 children                      4 0.00335
#>  2 hotel                         0 0      
#>  3 is_canceled                   0 0      
#>  4 lead_time                     0 0      
#>  5 arrival_date_year             0 0      
#>  6 arrival_date_month            0 0      
#>  7 arrival_date_week_number      0 0      
#>  8 arrival_date_day_of_month     0 0      
#>  9 stays_in_weekend_nights       0 0      
#> 10 stays_in_week_nights          0 0      
#> # ... with 18 more rows
…
