…
df_infect <- df_infect %>% 
  filter(end_date >= min(df_concern$modeldate)) %>% 
  mutate(timestamp = datetime_to_timestamp(end_date))

df_infect

## # A tibble: 1,612 x 6
##    end_date   pollster                 sponsor   name       value     timestamp
##    <date>     <chr>                    <chr>     <chr>      <dbl>         <dbl>
##  1 2020-02-16 AP-NORC                  <i>NA</i> Very          22 1581811200000
##  2 2020-02-16 AP-NORC                  <i>NA</i> Somewhat      23 1581811200000
##  3 2020-02-16 AP-NORC                  <i>NA</i> Not Very      37 1581811200000
##  4 2020-02-16 AP-NORC                  <i>NA</i> Not At All    19 1581811200000
##  5 2020-02-18 Kaiser Family Foundation <i>NA</i> Very          22 1581984000000
##  6 2020-02-18 Kaiser Family Foundation <i>NA</i> Somewhat      21 1581984000000
##  7 2020-02-18 Kaiser Family Foundation <i>NA</i> Not Very      33 1581984000000
##  8 2020-02-18 Kaiser Family Foundation <i>NA</i> Not At All    23 1581984000000
##  9 2020-02-18 YouGov                   Economist Very          10 1581984000000
## 10 2020-02-18 YouGov                   Economist Somewhat      28 1581984000000
## # ... with 1,602 more rows
…
