Social Network Analysis
…
#>       screen_name followers_count friends_count favourites_count
#> 1          btekno          331624           326               49
#> 2 machinelearnflx           93630         35370              160
#> 3        DD_FaFa_           23531         16268            51250
#> 4       NgeeAnnNP           12198           186             9910
#> 5        TheMLHub           10454          9369              859
#> 6  CintaNegeri_ID            9116          8755             2975

TeamAlgoritma Twitter account has 524 followers (on 2 February 2021). We need to gather all of their follower and following but Twitter rest API has (kinda stingy) limitation.

rate_limit()

#> # A tibble: 217 x 7
#>    query   limit remaining reset  reset_at            timestamp           app   
#>    <chr>   <int>     <int> <drtn> <dttm>              <dttm>              <chr> 
#>  1 lists/~    15        15 15.00~ 2021-03-16 16:38:57 2021-03-16 16:23:57 Autom~
#>  2 lists/~    75        75 15.00~ 2021-03-16 16:38:57 2021-03-16 16:23:57 Autom~
#>  3 lists/~    15        15 15.00~ 2021-03-16 16:38:57 2021-03-16 16:23:57 Autom~
#>  4 lists/~   900       900 15.00~ 2021-03-16 16:38:57 2021-03-16 16:23:57 Autom~
#>  5 lists/~    15        15 15.00~ 2021-03-16 16:38:57 2021-03-16 16:23:57 Autom~
#>  6 lists/~    75        75 15.00~ 2021-03-16 16:38:57 2021-03-16 16:23:57 Autom~
#>  7 lists/~    15        15 15.00~ 2021-03-16 16:38:57 2021-03-16 16:23:57 Autom~
#>  8 lists/~   180       180 15.00~ 2021-03-16 16:38:57 2021-03-16 16:23:57 Autom~
#>  9 lists/~    15        15 15.00~ 2021-03-16 16:38:57 2021-03-16 16:23:57 Autom~
#> 10 lists/~   900       900 15.00~ 2021-03-16 16:38:57 2021-03-16 16:23:57 Autom~
#> # ... with 207 more rows
…
What can we get from this visualization?

First, lets see this table

network_act_df %>% 
  arrange(-degree) %>%
  group_by(community) %>% 
  slice(1:5)

#> # A tibble: 28,362 x 6
#> # Groups:   community [9,461]
#>    name            community degree between closeness       eigen
#>    <chr>               <int>  <dbl>   <dbl>     <dbl>       <dbl>
#>  1 DevAn90700841           1      4       0  4.93e-10 0.00217    
#>  2 BFujer                  1      2       0  4.92e-10 0.0276     
#>  3 LAHSGwalior             1      2       0  4.92e-10 0.0276     
#>  4 RaviBhai2705            1      2       2  4.92e-10 0.0276     
#>  5 TeamAlbanians           1      2      21  4.92e-10 0.0280     
#>  6 GentlemanShrink         2      2       0  4.93e-10 0.000722   
#>  7 __crbr                  2      1       0  4.92e-10 0.000000947
#>  8 __malea__               2      1       0  4.92e-10 0.000000947
#>  9 _chxline                2      1       0  4.92e-10 0.000000947
#> 10 _dnbss                  2      1       0  4.92e-10 0.000000947
#> # ... with 28,352 more rows
…
