…
Di mana \(Y\) merupakan sebuah variabel dependen dari variabel prediktor \(x_i\) dan \(\varepsilon\) biasanya diasumsikan sebagai error/white noise. Kami akan mengganti \(\varepsilon\) dengan \(n_t\) pada persamaan. Error \(\phi_t\) diasumsikan mengikuti hasil dari model ARIMA. Sebagai contoh, jika \(n_t\) mengikuti model ARIMA (1,1,1), dapat kita tuliskan

\[Y = \beta_0 + \beta_1x_1+\beta_2x_2+...+\beta_ix_i+\eta_t\]

\[(1-\phi_1B)(1-B)\eta_t = (1+\phi_1B)\varepsilon_t\]

Di mana \(\varepsilon_t\), merupakan seri white noise. Model ARIMAX memiliki two error terms; the error dari model regresi yang dinotasikan dengan \(\phi_t\) dan error dari model ARIMA model yang dinotasikan dengan \(\varepsilon_t\).

Studi Kasus: Peramalan Konsumsi berdasarkan Tingkat Pendapatan, Produksi, Pengangguran, dan Dana Cadangan

Pada kasus ini, akan diramalkan persentase perubahan ekonomi di USA menggunakan data us_change dari library fpp3.

us_change

#> # A tsibble: 198 x 6 [1Q]
#>    Quarter Consumption Income Production Savings Unemployment
#>      <qtr>       <dbl>  <dbl>      <dbl>   <dbl>        <dbl>
#>  1 1970 Q1       0.619  1.04      -2.45    5.30         0.9  
#>  2 1970 Q2       0.452  1.23      -0.551   7.79         0.5  
#>  3 1970 Q3       0.873  1.59      -0.359   7.40         0.5  
#>  4 1970 Q4      -0.272 -0.240     -2.19    1.17         0.700
#>  5 1971 Q1       1.90   1.98       1.91    3.54        -0.100
#>  6 1971 Q2       0.915  1.45       0.902   5.87        -0.100
#>  7 1971 Q3       0.794  0.521      0.308  -0.406        0.100
#>  8 1971 Q4       1.65   1.16       2.29   -1.49         0    
#>  9 1972 Q1       1.31   0.457      4.15   -4.29        -0.200
#> 10 1972 Q2       1.89   1.03       1.89   -4.69        -0.100
#> # … with 188 more rows
…
