Text Generation with Markov Chains
…
Does the sentences make sense? Perhaps some of them does. The number of words generated also affect whether the sentence will make sense or not, such as the third sentence that end with and, making it an incomplete sentence, while the second and fourth sentence can be a complete sentence. We may want to cut the sentence at certain point to make it a better sentence.

Next, we can try to create more complex model using to create a sentences based on Sherlock Holmes novel.

Import Dataset

The data come from  The Adventure of Sherlock Holmes  by Sir Arthur Conan Doyles. We will directly import the text from the project gutenberg website. Since processing a lot of words/terms in NLP is requires a huge resource (both times and power), I will only use this single book instead of all of Sherlock Holmes novels.

library(gutenbergr)

sherlock <- gutenberg_download(1661)
head(sherlock, 30)

#> # A tibble: 30 x 2
#>    gutenberg_id text                               
#>           <int> <chr>                              
#>  1         1661 "THE ADVENTURES OF SHERLOCK HOLMES"
#>  2         1661 ""                                 
#>  3         1661 "by"                               
#>  4         1661 ""                                 
#>  5         1661 "SIR ARTHUR CONAN DOYLE"           
#>  6         1661 ""                                 
#>  7         1661 ""                                 
#>  8         1661 ""                                 
#>  9         1661 "   I. A Scandal in Bohemia"       
#> 10         1661 "  II. The Red-headed League"      
#> # ... with 20 more rows
…
