Introduction to tidymodels
…
Initial splitting

Initial random sampling for splitting train and test could be done using initial_split():

# set seed
set.seed(100)

# create initial split
splitted <- initial_split(attrition, prop = 0.8)

# check train dataset
training(splitted)

#> # A tibble: 1,177 x 35
#>    attrition   age business_travel daily_rate department distance_from_h~
#>    <chr>     <dbl> <chr>                <dbl> <chr>                 <dbl>
#>  1 yes          41 travel_rarely         1102 sales                     1
#>  2 no           49 travel_frequen~        279 research_~                8
#>  3 yes          37 travel_rarely         1373 research_~                2
#>  4 no           33 travel_frequen~       1392 research_~                3
#>  5 no           27 travel_rarely          591 research_~                2
#>  6 no           32 travel_frequen~       1005 research_~                2
#>  7 no           59 travel_rarely         1324 research_~                3
#>  8 no           30 travel_rarely         1358 research_~               24
#>  9 no           38 travel_frequen~        216 research_~               23
#> 10 no           36 travel_rarely         1299 research_~               27
#> # ... with 1,167 more rows, and 29 more variables: education <dbl>,
#> #   education_field <chr>, employee_count <dbl>, employee_number <dbl>,
#> #   environment_satisfaction <dbl>, gender <chr>, hourly_rate <dbl>,
#> #   job_involvement <dbl>, job_level <dbl>, job_role <chr>,
#> #   job_satisfaction <dbl>, marital_status <chr>, monthly_income <dbl>,
#> #   monthly_rate <dbl>, num_companies_worked <dbl>, over_18 <chr>,
#> #   over_time <chr>, percent_salary_hike <dbl>, performance_rating <dbl>,
#> #   relationship_satisfaction <dbl>, standard_hours <dbl>,
#> #   stock_option_level <dbl>, total_working_years <dbl>,
#> #   training_times_last_year <dbl>, work_life_balance <dbl>,
#> #   years_at_company <dbl>, years_in_current_role <dbl>,
#> #   years_since_last_promotion <dbl>, years_with_curr_manager <dbl>

# check test dataset
testing(splitted)

#> # A tibble: 293 x 35
#>    attrition   age business_travel daily_rate department distance_from_h~
#>    <chr>     <dbl> <chr>                <dbl> <chr>                 <dbl>
#>  1 no           29 travel_rarely         1389 research_~               21
#>  2 no           38 travel_rarely          371 research_~                2
#>  3 yes          36 travel_rarely         1218 sales                     9
#>  4 yes          34 travel_rarely          699 research_~                6
#>  5 no           53 travel_rarely         1282 research_~                5
#>  6 yes          24 travel_rarely          813 research_~                1
#>  7 no           36 travel_rarely          852 research_~                5
#>  8 no           27 travel_rarely         1240 research_~                2
#>  9 yes          41 travel_rarely         1360 research_~               12
#> 10 yes          48 travel_rarely          626 research_~                1
#> # ... with 283 more rows, and 29 more variables: education <dbl>,
#> #   education_field <chr>, employee_count <dbl>, employee_number <dbl>,
#> #   environment_satisfaction <dbl>, gender <chr>, hourly_rate <dbl>,
#> #   job_involvement <dbl>, job_level <dbl>, job_role <chr>,
#> #   job_satisfaction <dbl>, marital_status <chr>, monthly_income <dbl>,
#> #   monthly_rate <dbl>, num_companies_worked <dbl>, over_18 <chr>,
#> #   over_time <chr>, percent_salary_hike <dbl>, performance_rating <dbl>,
#> #   relationship_satisfaction <dbl>, standard_hours <dbl>,
#> #   stock_option_level <dbl>, total_working_years <dbl>,
…
Each train and test dataset are stored in splits column. We could use analysis() and assessment() to get the train and test dataset, consecutively:

# check train dataset on an example split
analysis(resampled$splits[[1]])

#> # A tibble: 980 x 35
#>    attrition   age business_travel daily_rate department distance_from_h~
#>    <chr>     <dbl> <chr>                <dbl> <chr>                 <dbl>
#>  1 no           49 travel_frequen~        279 research_~                8
#>  2 yes          37 travel_rarely         1373 research_~                2
#>  3 no           33 travel_frequen~       1392 research_~                3
#>  4 no           27 travel_rarely          591 research_~                2
#>  5 no           59 travel_rarely         1324 research_~                3
#>  6 no           36 travel_rarely         1299 research_~               27
#>  7 no           29 travel_rarely          153 research_~               15
#>  8 no           31 travel_rarely          670 research_~               26
#>  9 no           34 travel_rarely         1346 research_~               19
#> 10 no           22 non_travel            1123 research_~               16
#> # ... with 970 more rows, and 29 more variables: education <dbl>,
#> #   education_field <chr>, employee_count <dbl>, employee_number <dbl>,
#> #   environment_satisfaction <dbl>, gender <chr>, hourly_rate <dbl>,
#> #   job_involvement <dbl>, job_level <dbl>, job_role <chr>,
#> #   job_satisfaction <dbl>, marital_status <chr>, monthly_income <dbl>,
#> #   monthly_rate <dbl>, num_companies_worked <dbl>, over_18 <chr>,
#> #   over_time <chr>, percent_salary_hike <dbl>, performance_rating <dbl>,
#> #   relationship_satisfaction <dbl>, standard_hours <dbl>,
#> #   stock_option_level <dbl>, total_working_years <dbl>,
#> #   training_times_last_year <dbl>, work_life_balance <dbl>,
#> #   years_at_company <dbl>, years_in_current_role <dbl>,
#> #   years_since_last_promotion <dbl>, years_with_curr_manager <dbl>

# check test dataset on an example split
assessment(resampled$splits[[1]])

#> # A tibble: 490 x 35
#>    attrition   age business_travel daily_rate department distance_from_h~
#>    <chr>     <dbl> <chr>                <dbl> <chr>                 <dbl>
#>  1 yes          41 travel_rarely         1102 sales                     1
#>  2 no           32 travel_frequen~       1005 research_~                2
#>  3 no           30 travel_rarely         1358 research_~               24
#>  4 no           38 travel_frequen~        216 research_~               23
#>  5 no           35 travel_rarely          809 research_~               16
#>  6 yes          28 travel_rarely          103 research_~               24
#>  7 no           29 travel_rarely         1389 research_~               21
#>  8 no           32 travel_rarely          334 research_~                5
#>  9 no           38 travel_rarely          371 research_~                2
#> 10 yes          36 travel_rarely         1218 sales                     9
#> # ... with 480 more rows, and 29 more variables: education <dbl>,
#> #   education_field <chr>, employee_count <dbl>, employee_number <dbl>,
#> #   environment_satisfaction <dbl>, gender <chr>, hourly_rate <dbl>,
#> #   job_involvement <dbl>, job_level <dbl>, job_role <chr>,
#> #   job_satisfaction <dbl>, marital_status <chr>, monthly_income <dbl>,
#> #   monthly_rate <dbl>, num_companies_worked <dbl>, over_18 <chr>,
#> #   over_time <chr>, percent_salary_hike <dbl>, performance_rating <dbl>,
#> #   relationship_satisfaction <dbl>, standard_hours <dbl>,
#> #   stock_option_level <dbl>, total_working_years <dbl>,
…
juice() :
Extract preprocessed dataset from prep()-ed recipe. Normally, we will use this function to get preprocessed train dataset.

bake() :
Apply a recipe to new dataset. Normally, we use we will use this function to preprocess new dataset, such as test dataset, or prediction dataset.

These are some example on how to get preprocessed train and test dataset:

# get preprocessed train dataset
data_train <- juice(rec)

# quick check
data_train

#> # A tibble: 380 x 22
#>    business_travel department education_field gender job_role
#>    <fct>           <fct>      <fct>           <fct>  <fct>   
#>  1 travel_rarely   sales      life_sciences   female sales_e~
#>  2 travel_rarely   research_~ other           male   laborat~
#>  3 travel_rarely   research_~ life_sciences   male   laborat~
#>  4 travel_rarely   research_~ medical         male   researc~
#>  5 travel_frequen~ research_~ life_sciences   female researc~
#>  6 travel_rarely   sales      technical_degr~ male   sales_r~
#>  7 travel_rarely   research_~ medical         male   researc~
#>  8 travel_rarely   sales      marketing       male   sales_r~
#>  9 travel_rarely   research_~ technical_degr~ female researc~
#> 10 travel_rarely   research_~ life_sciences   male   laborat~
#> # ... with 370 more rows, and 17 more variables: marital_status <fct>,
#> #   over_time <fct>, attrition <fct>, PC01 <dbl>, PC02 <dbl>, PC03 <dbl>,
#> #   PC04 <dbl>, PC05 <dbl>, PC06 <dbl>, PC07 <dbl>, PC08 <dbl>,
#> #   PC09 <dbl>, PC10 <dbl>, PC11 <dbl>, PC12 <dbl>, PC13 <dbl>, PC14 <dbl>

# get preprocessed test dataset
data_test <- bake(rec, testing(splitted))

# quick check
data_test

#> # A tibble: 293 x 22
#>    attrition business_travel department education_field gender job_role
#>    <fct>     <fct>           <fct>      <fct>           <fct>  <fct>   
#>  1 no        travel_rarely   research_~ life_sciences   female manufac~
#>  2 no        non_travel      research_~ other           female manufac~
#>  3 yes       travel_rarely   sales      life_sciences   male   sales_r~
#>  4 no        travel_rarely   research_~ other           female manager 
#>  5 no        travel_rarely   sales      marketing       male   sales_e~
#>  6 no        travel_rarely   sales      marketing       female sales_r~
#>  7 no        travel_rarely   research_~ other           male   laborat~
#>  8 yes       travel_rarely   research_~ life_sciences   male   laborat~
#>  9 no        travel_frequen~ research_~ medical         female laborat~
#> 10 no        travel_rarely   research_~ life_sciences   male   researc~
#> # ... with 283 more rows, and 16 more variables: marital_status <fct>,
#> #   over_time <fct>, PC01 <dbl>, PC02 <dbl>, PC03 <dbl>, PC04 <dbl>,
#> #   PC05 <dbl>, PC06 <dbl>, PC07 <dbl>, PC08 <dbl>, PC09 <dbl>,
#> #   PC10 <dbl>, PC11 <dbl>, PC12 <dbl>, PC13 <dbl>, PC14 <dbl>
…
To get the prediction, we could use predict() as usual–but note that it would return a tidied tibble instead of a vector, as in type = "class" cases, or a raw data.frame, as in type = "prob" cases.

In this way, the prediction results would be very convenient for further usage, such as simple recombining with the original dataset:

# get prediction on test
predicted <- data_test %>% 
  bind_cols(predict(model, data_test)) %>% 
  bind_cols(predict(model, data_test, type = "prob"))

# quick check
predicted %>% 
  select(attrition, matches(".pred"))

#> # A tibble: 293 x 4
#>    attrition .pred_class .pred_yes .pred_no
#>    <fct>     <fct>           <dbl>    <dbl>
#>  1 no        no             0.340     0.660
#>  2 no        no             0.358     0.642
#>  3 yes       yes            0.509     0.491
#>  4 no        no             0.0884    0.912
#>  5 no        no             0.185     0.815
#>  6 no        no             0.448     0.552
#>  7 no        no             0.127     0.873
#>  8 yes       yes            0.748     0.252
#>  9 no        no             0.147     0.853
#> 10 no        yes            0.680     0.320
#> # ... with 283 more rows
…
predicted %>% 
  roc_curve(attrition, .pred_yes) %>% 
  autoplot()

And, since it’s returning a tibble, we could do further data wrangling to help us see it more clearly:

# get roc curve data on test dataset
pred_test_roc <- predicted %>%
  roc_curve(attrition, .pred_yes)

# quick check
pred_test_roc

#> # A tibble: 295 x 3
#>    .threshold specificity sensitivity
#>         <dbl>       <dbl>       <dbl>
#>  1  -Inf          0                 1
#>  2     0.0422     0                 1
#>  3     0.0487     0.00407           1
#>  4     0.0568     0.00813           1
#>  5     0.0674     0.0122            1
#>  6     0.0685     0.0163            1
#>  7     0.0705     0.0203            1
#>  8     0.0884     0.0244            1
#>  9     0.0922     0.0285            1
#> 10     0.0945     0.0325            1
#> # ... with 285 more rows
…
