Age-Period-Cohort (APC) Analysis
…
sex: gender indicator

country: country indicator

We need to readjust APC variable to start with:

# readjust apc variable
suicides <- suicides %>%
  mutate(age_squared = age ^ 2) %>% 
  mutate_at(vars(period, cohort), funs(as.factor(.))) %>% 
  select(suicides, age, age_squared, period, cohort, everything())

suicides

#> # A tibble: 27,820 x 7
#>    suicides   age age_squared period cohort sex    country
#>       <dbl> <dbl>       <dbl> <fct>  <fct>  <chr>  <chr>  
#>  1       21    20         400 1987   1967   male   Albania
#>  2       16    44        1936 1987   1943   male   Albania
#>  3       14    20         400 1987   1967   female Albania
#>  4        1    75        5625 1987   1912   male   Albania
#>  5        9    30         900 1987   1957   male   Albania
#>  6        1    75        5625 1987   1912   female Albania
#>  7        6    44        1936 1987   1943   female Albania
#>  8        4    30         900 1987   1957   female Albania
#>  9        1    64        4096 1987   1923   male   Albania
#> 10        0    10         100 1987   1977   female Albania
#> # ... with 27,810 more rows
…
Use package broom to constructs a data frame that summarizes the model’s statistical findings.

apc_tidy <- tidy(apc_lm)

apc_tidy

#> # A tibble: 128 x 5
#>    term        estimate std.error statistic  p.value
#>    <chr>          <dbl>     <dbl>     <dbl>    <dbl>
#>  1 (Intercept) -339.      86.8      -3.91   9.40e- 5
#>  2 age           30.4      2.32     13.1    5.11e-39
#>  3 age_squared   -0.323    0.0217  -14.9    7.18e-50
#>  4 period1986   -15.3     76.2      -0.200  8.41e- 1
#>  5 period1987   -38.5     78.4      -0.491  6.23e- 1
#>  6 period1988    -6.44    77.8      -0.0828 9.34e- 1
#>  7 period1989    66.9     73.3       0.914  3.61e- 1
#>  8 period1990    60.1     74.2       0.810  4.18e- 1
#>  9 period1991    67.5     71.9       0.939  3.48e- 1
#> 10 period1992   118.      75.2       1.57   1.17e- 1
#> # ... with 118 more rows

From tidied coefficients, we need to tidy our results, starting from period and cohort first:

pc_tidy <- apc_tidy %>%
  mutate(
    key = str_replace_all(term, "[:digit:]", ""), 
    value = str_replace_all(term, "[:alpha:]", "") %>% as.numeric() 
  ) %>% # seperate digit number and alphabet of term 
  select(key, value, estimate) %>% 
  filter(key == "period" | key == "cohort") %>% 
  spread(key, value)

pc_tidy

#> # A tibble: 125 x 3
#>    estimate cohort period
#>       <dbl>  <dbl>  <dbl>
#>  1   -177.      NA   2016
#>  2   -130.    1973     NA
#>  3   -122.    1974     NA
#>  4   -114.    1918     NA
#>  5   -112.    1919     NA
#>  6    -94.9   1972     NA
#>  7    -89.9   1983     NA
#>  8    -84.2   1984     NA
#>  9    -82.8   1917     NA
#> 10    -62.2   1928     NA
#> # ... with 115 more rows
…
Now we can calculate the age effect, then combine all the coefficient together:

apc_all <- suicides %>%
  mutate(age_effect = (age * age_coef) + (age_squared * age_squared_coef)) %>% 
  select(x = age, y = age_effect) %>% 
  distinct() %>% 
  mutate(group = "Age Effect") %>% 
  bind_rows(mutate(period_coef, group = "Period Effect")) %>% 
  bind_rows(mutate(cohort_coef, group = "Cohort Effect")) %>% 
  select(group, x, y) %>% 
  arrange(x)

apc_all

#> # A tibble: 131 x 3
#>    group             x     y
#>    <chr>         <dbl> <dbl>
#>  1 Age Effect       10 272. 
#>  2 Age Effect       20 479. 
#>  3 Age Effect       30 622. 
#>  4 Age Effect       44 713. 
#>  5 Age Effect       64 623. 
#>  6 Age Effect       75 464. 
#>  7 Cohort Effect  1911  22.6
#>  8 Cohort Effect  1912  44.1
#>  9 Cohort Effect  1913  26.9
#> 10 Cohort Effect  1914 -24.1
#> # ... with 121 more rows
…
From plot above we can identify Age, Period and Cohort effect of suicides. But it’s not capturing all of our the data dynamics, lets try it to more specific cases from the data. We filltered the data by sex and country:

suicides_male_us <- suicides %>% 
  filter(
    sex == "male",
    country == "United States"
  )

suicides_male_us

#> # A tibble: 186 x 7
#>    suicides   age age_squared period cohort sex   country      
#>       <dbl> <dbl>       <dbl> <fct>  <fct>  <chr> <chr>        
#>  1     2177    75        5625 1985   1910   male  United States
#>  2     5302    64        4096 1985   1921   male  United States
#>  3     5134    30         900 1985   1955   male  United States
#>  4     6053    44        1936 1985   1941   male  United States
#>  5     4267    20         400 1985   1965   male  United States
#>  6      205    10         100 1985   1975   male  United States
#>  7     2340    75        5625 1986   1911   male  United States
#>  8     5500    64        4096 1986   1922   male  United States
#>  9     5450    30         900 1986   1956   male  United States
#> 10     6450    44        1936 1986   1942   male  United States
#> # ... with 176 more rows
…
Now we can calculate the age effect, then combine all the coefficient together:

apc_all_male_us <- suicides_male_us %>%
  mutate(age_effect = (age * age_coef) + (age_squared * age_squared_coef)) %>% 
  select(x = age, y = age_effect) %>% 
  distinct() %>% 
  mutate(group = "Age Effect") %>% 
  bind_rows(mutate(period_coef, group = "Period Effect")) %>% 
  bind_rows(mutate(cohort_coef, group = "Cohort Effect")) %>% 
  select(group, x, y) %>% 
  arrange(x)

apc_all_male_us

#> # A tibble: 130 x 3
#>    group             x       y
#>    <chr>         <dbl>   <dbl>
#>  1 Age Effect       10  3900. 
#>  2 Age Effect       20  6933. 
#>  3 Age Effect       30  9098. 
#>  4 Age Effect       44 10671. 
#>  5 Age Effect       64  9968. 
#>  6 Age Effect       75  8102. 
#>  7 Cohort Effect  1911   398. 
#>  8 Cohort Effect  1912   732. 
#>  9 Cohort Effect  1913   486. 
#> 10 Cohort Effect  1914   -47.3
#> # ... with 120 more rows
…
