Purrr-operly Fitting Multiple Time Series Model
…
Hourly Energy Consumption dataset from PJM

For this tutorial, we will use Hourly Energy Consumption dataset provided by PJM, and could be accessed from Kaggle dataset, which kindly shared by Rob Mulla. The data contains the hourly power consumption estimated by each electricity provider.

The dataset is actually need more cleaning before we can use it for time series analyses and forecasting. The version I use in this tutorial is already going through some cleaning and adjustment. If you are interested in the cleaning process, or simply want to reproduce the results using the same dataset, you can check the script from this post folder in my blog repository (to be exact, in file data.R inside the R folder).

Let’s start by importing the dataset:

# import dataset
pjm <- read_csv("data_input/pjm.csv")

pjm
#> # A tibble: 362,688 x 3
#>    datetime            provider  cons
#>    <dttm>              <chr>    <dbl>
#>  1 2013-06-01 00:00:00 AEP      13477
#>  2 2013-06-01 01:00:00 AEP      12699
#>  3 2013-06-01 02:00:00 AEP      12274
#>  4 2013-06-01 03:00:00 AEP      11904
#>  5 2013-06-01 04:00:00 AEP      11862
#>  6 2013-06-01 05:00:00 AEP      11976
#>  7 2013-06-01 06:00:00 AEP      12447
#>  8 2013-06-01 07:00:00 AEP      12713
#>  9 2013-06-01 08:00:00 AEP      13730
#> 10 2013-06-01 09:00:00 AEP      14609
#> # ... with 362,678 more rows
…
Data preprocess using recipes

Data preprocessing is a very crucial step in time series model fitting. In this tutorial, we will use recipes package for data preprocessing.

Since recipe package work columnwise, we need to convert our data into a wide format first:

# convert to wide format
pjm %<>%
  spread(provider, cons)

pjm
#> # A tibble: 45,336 x 9
#>    datetime              AEP COMED DAYTON  DEOK   DOM   DUQ  EKPC    FE
#>    <dttm>              <dbl> <dbl>  <dbl> <dbl> <dbl> <dbl> <dbl> <dbl>
#>  1 2013-06-01 00:00:00 13477 11378   1682  2773 10150  1739  1166  7099
#>  2 2013-06-01 01:00:00 12699 10584   1568  2613  9406  1641  1098  6617
#>  3 2013-06-01 02:00:00 12274  9973   1514  2499  8910  1569  1036  6351
#>  4 2013-06-01 03:00:00 11904  9451   1467  2409  8551  1518  1023  6201
#>  5 2013-06-01 04:00:00 11862  9184   1456  2392  8413  1503   949  6157
#>  6 2013-06-01 05:00:00 11976  9043   1485  2425  8409  1515  1017  6187
#>  7 2013-06-01 06:00:00 12447  9054   1511  2469  8582  1531  1036  6257
#>  8 2013-06-01 07:00:00 12713  9290   1596  2606  9600  1586  1096  6606
#>  9 2013-06-01 08:00:00 13730  9980   1711  2823 10816  1745  1200  7182
#> 10 2013-06-01 09:00:00 14609 10590   1823  3013 12017  1903  1285  7777
#> # ... with 45,326 more rows

Then we could start to define the preprocess recipe(), and bake() our data based on the defined recipe:

# recipes: square root, center, scale
rec <- recipe(~ ., filter(pjm, datetime %within% intrain)) %>%
  step_sqrt(all_numeric()) %>%
  step_center(all_numeric()) %>%
  step_scale(all_numeric()) %>%
  prep()

# preview the bake results
pjm <- bake(rec, pjm)

pjm
#> # A tibble: 45,336 x 9
#>    datetime                AEP   COMED DAYTON   DEOK     DOM     DUQ   EKPC
#>    <dttm>                <dbl>   <dbl>  <dbl>  <dbl>   <dbl>   <dbl>  <dbl>
#>  1 2013-06-01 00:00:00 -0.393   0.0676 -0.784 -0.510 -0.373   0.481  -0.837
#>  2 2013-06-01 01:00:00 -0.722  -0.247  -1.10  -0.741 -0.693   0.191  -1.08 
#>  3 2013-06-01 02:00:00 -0.907  -0.496  -1.25  -0.911 -0.913  -0.0282 -1.31 
#>  4 2013-06-01 03:00:00 -1.07   -0.716  -1.39  -1.05  -1.08   -0.186  -1.35 
#>  5 2013-06-01 04:00:00 -1.09   -0.831  -1.42  -1.07  -1.14   -0.233  -1.63 
#>  6 2013-06-01 05:00:00 -1.04   -0.892  -1.34  -1.02  -1.14   -0.196  -1.38 
#>  7 2013-06-01 06:00:00 -0.831  -0.887  -1.26  -0.956 -1.06   -0.146  -1.31 
#>  8 2013-06-01 07:00:00 -0.716  -0.785  -1.02  -0.752 -0.608   0.0240 -1.09 
#>  9 2013-06-01 08:00:00 -0.288  -0.493  -0.706 -0.439 -0.0967  0.499  -0.719
#> 10 2013-06-01 09:00:00  0.0699 -0.244  -0.408 -0.175  0.381   0.949  -0.431
#> # ... with 45,326 more rows, and 1 more variable: FE <dbl>
…
  # return the results
  results

}

This revert back function would be very handy if we want to convert back the data to its original form.

Now we can convert our data into the long format again:

# convert back to long format
pjm %<>%
  gather(provider, cons, -datetime)
  
pjm
#> # A tibble: 362,688 x 3
#>    datetime            provider    cons
#>    <dttm>              <chr>      <dbl>
#>  1 2013-06-01 00:00:00 AEP      -0.393 
#>  2 2013-06-01 01:00:00 AEP      -0.722 
#>  3 2013-06-01 02:00:00 AEP      -0.907 
#>  4 2013-06-01 03:00:00 AEP      -1.07  
#>  5 2013-06-01 04:00:00 AEP      -1.09  
#>  6 2013-06-01 05:00:00 AEP      -1.04  
#>  7 2013-06-01 06:00:00 AEP      -0.831 
#>  8 2013-06-01 07:00:00 AEP      -0.716 
#>  9 2013-06-01 08:00:00 AEP      -0.288 
#> 10 2013-06-01 09:00:00 AEP       0.0699
#> # ... with 362,678 more rows
…
In functional programming using purrr, we need to convert our tbl into a nested tbl. You can think a nested data like a table inside a table, which could be controlled using a key indicator; in other words, we can have tbl for each provider and samples. Using this format, the fitting and forecasting process would be very versatile, yet we can still convert the results as long as we have a proper key like provider.

Let’s start by converting our tbl into a nested tbl. First, we need to add sample indicator so it could be recognized as a key when we nest() the data:

# adjust by sample
pjm %<>%
  mutate(sample = case_when(
    datetime %within% intrain ~ "train",
    datetime %within% intest ~ "test"
  )) %>%
  drop_na()
  
pjm
#> # A tibble: 21,504 x 4
#>    datetime            provider   cons sample
#>    <dttm>              <chr>     <dbl> <chr> 
#>  1 2018-04-13 00:00:00 AEP      -1.26  train 
#>  2 2018-04-13 01:00:00 AEP      -1.43  train 
#>  3 2018-04-13 02:00:00 AEP      -1.52  train 
#>  4 2018-04-13 03:00:00 AEP      -1.49  train 
#>  5 2018-04-13 04:00:00 AEP      -1.39  train 
#>  6 2018-04-13 05:00:00 AEP      -1.07  train 
#>  7 2018-04-13 06:00:00 AEP      -0.548 train 
#>  8 2018-04-13 07:00:00 AEP      -0.308 train 
#>  9 2018-04-13 08:00:00 AEP      -0.228 train 
#> 10 2018-04-13 09:00:00 AEP      -0.209 train 
#> # ... with 21,494 more rows
…
Then we can convert it into a nested format like previous example:

# convert to nested
models %<>%
  rep(length(unique(pjm$provider))) %>%
  enframe("model_name", "model") %>%
  mutate(provider =
    sort(rep(unique(pjm$provider), length(unique(.$model_name))))
  )

models
#> # A tibble: 32 x 3
#>    model_name model  provider
#>    <chr>      <list> <chr>   
#>  1 auto.arima <fn>   AEP     
#>  2 ets        <fn>   AEP     
#>  3 stlm       <fn>   AEP     
#>  4 tbats      <fn>   AEP     
#>  5 auto.arima <fn>   COMED   
#>  6 ets        <fn>   COMED   
#>  7 stlm       <fn>   COMED   
#>  8 tbats      <fn>   COMED   
#>  9 auto.arima <fn>   DAYTON  
#> 10 ets        <fn>   DAYTON  
#> # ... with 22 more rows

And finally, we can join the result into our nested data. Note that we could also apply some rule here. For example, if I don’t want to have ets() and auto.arima() for data with msts class–since they are not suitable for multiple seasonality time series–we can use filter to remove them out:

# combine with models
pjm %<>%
  left_join(models) %>%
  filter(
    !(model_name == "ets" & data_fun_name == "msts"),
    !(model_name == "auto.arima" & data_fun_name == "msts")
  )

Here’s our data with the full combination:

pjm
#> # A tibble: 48 x 7
#>    provider test        train       data_fun_name data_fun model_name model
#>    <chr>    <list>      <list>      <chr>         <list>   <chr>      <lis>
#>  1 AEP      <tibble [6~ <tibble [2~ ts            <fn>     auto.arima <fn> 
#>  2 AEP      <tibble [6~ <tibble [2~ ts            <fn>     ets        <fn> 
#>  3 AEP      <tibble [6~ <tibble [2~ ts            <fn>     stlm       <fn> 
#>  4 AEP      <tibble [6~ <tibble [2~ ts            <fn>     tbats      <fn> 
#>  5 AEP      <tibble [6~ <tibble [2~ msts          <fn>     stlm       <fn> 
#>  6 AEP      <tibble [6~ <tibble [2~ msts          <fn>     tbats      <fn> 
#>  7 COMED    <tibble [6~ <tibble [2~ ts            <fn>     auto.arima <fn> 
#>  8 COMED    <tibble [6~ <tibble [2~ ts            <fn>     ets        <fn> 
#>  9 COMED    <tibble [6~ <tibble [2~ ts            <fn>     stlm       <fn> 
#> 10 COMED    <tibble [6~ <tibble [2~ ts            <fn>     tbats      <fn> 
#> # ... with 38 more rows
…
See the code in the chunk below for the implementation of the process:

# invoke nested fitting
pjm %<>%
  mutate(
    params = map(train, ~ list(x = .x)),
    data = invoke_map(data_fun, params),
    params = map(data, ~ list(x = .x)),
    fitted = invoke_map(model, params)
  ) %>%
  select(-data, -params)
  
pjm
#> # A tibble: 48 x 8
#>    provider test    train    data_fun_name data_fun model_name model fitted
#>    <chr>    <list>  <list>   <chr>         <list>   <chr>      <lis> <list>
#>  1 AEP      <tibbl~ <tibble~ ts            <fn>     auto.arima <fn>  <fr_A~
#>  2 AEP      <tibbl~ <tibble~ ts            <fn>     ets        <fn>  <ets> 
#>  3 AEP      <tibbl~ <tibble~ ts            <fn>     stlm       <fn>  <stlm>
#>  4 AEP      <tibbl~ <tibble~ ts            <fn>     tbats      <fn>  <tbat~
#>  5 AEP      <tibbl~ <tibble~ msts          <fn>     stlm       <fn>  <stlm>
#>  6 AEP      <tibbl~ <tibble~ msts          <fn>     tbats      <fn>  <tbat~
#>  7 COMED    <tibbl~ <tibble~ ts            <fn>     auto.arima <fn>  <fr_A~
#>  8 COMED    <tibbl~ <tibble~ ts            <fn>     ets        <fn>  <ets> 
#>  9 COMED    <tibbl~ <tibble~ ts            <fn>     stlm       <fn>  <stlm>
#> 10 COMED    <tibbl~ <tibble~ ts            <fn>     tbats      <fn>  <tbat~
#> # ... with 38 more rows

Now the next step is to measure the test error. First, we need to forecast() into the test dataset, and then pipe it into the error measurement using one of function provided in yardstick. For this example, let’s use Root Mean Squared-Error (we use rmse_vec for simple vector calculation) as an error measurement:

# calculate test errors
pjm %<>%
  mutate(error =
    map(fitted, ~ forecast(.x, h = 24 * 7 * 4)) %>%
    map2_dbl(test, ~ rmse_vec(truth = .y$cons, estimate = .x$mean))
  ) %>%
  arrange(provider, error)

pjm %>%
  select(provider, ends_with("_name"), error)
#> # A tibble: 48 x 4
#>    provider data_fun_name model_name error
#>    <chr>    <chr>         <chr>      <dbl>
#>  1 AEP      msts          stlm       0.733
#>  2 AEP      msts          tbats      0.745
#>  3 AEP      ts            stlm       0.761
#>  4 AEP      ts            auto.arima 0.820
#>  5 AEP      ts            tbats      0.951
#>  6 AEP      ts            ets        4.28 
#>  7 COMED    msts          tbats      0.805
#>  8 COMED    msts          stlm       0.813
#>  9 COMED    ts            stlm       0.837
#> 10 COMED    ts            tbats      0.935
#> # ... with 38 more rows
…
Let’s start with creating the forecast first:

pjm_test <- pjm %>%
  mutate(
    forecast =
      map(fitted, ~ forecast(.x, h = 24 * 7 * 4)) %>%
      map2(test, ~ tibble(
        datetime = .y$datetime,
        cons = as.vector(.x$mean)
      )),
    key = paste(data_fun_name, model_name, sep = "-")
  )
  
pjm_test
#> # A tibble: 48 x 11
#>    provider test  train data_fun_name data_fun model_name model fitted
#>    <chr>    <lis> <lis> <chr>         <list>   <chr>      <lis> <list>
#>  1 AEP      <tib~ <tib~ msts          <fn>     stlm       <fn>  <stlm>
#>  2 AEP      <tib~ <tib~ msts          <fn>     tbats      <fn>  <tbat~
#>  3 AEP      <tib~ <tib~ ts            <fn>     stlm       <fn>  <stlm>
#>  4 AEP      <tib~ <tib~ ts            <fn>     auto.arima <fn>  <fr_A~
#>  5 AEP      <tib~ <tib~ ts            <fn>     tbats      <fn>  <tbat~
#>  6 AEP      <tib~ <tib~ ts            <fn>     ets        <fn>  <ets> 
#>  7 COMED    <tib~ <tib~ msts          <fn>     tbats      <fn>  <tbat~
#>  8 COMED    <tib~ <tib~ msts          <fn>     stlm       <fn>  <stlm>
#>  9 COMED    <tib~ <tib~ ts            <fn>     stlm       <fn>  <stlm>
#> 10 COMED    <tib~ <tib~ ts            <fn>     tbats      <fn>  <tbat~
#> # ... with 38 more rows, and 3 more variables: error <dbl>,
#> #   forecast <list>, key <chr>

Then do some spread-gather to create a proper key:

pjm_test %<>%
  select(provider, key, actual = test, forecast) %>%
  spread(key, forecast) %>%
  gather(key, value, -provider)

pjm_test
#> # A tibble: 56 x 3
#>    provider key       value             
#>    <chr>    <chr>     <list>            
#>  1 AEP      actual    <tibble [672 x 2]>
#>  2 COMED    actual    <tibble [672 x 2]>
#>  3 DAYTON   actual    <tibble [672 x 2]>
#>  4 DEOK     actual    <tibble [672 x 2]>
#>  5 DOM      actual    <tibble [672 x 2]>
#>  6 DUQ      actual    <tibble [672 x 2]>
#>  7 EKPC     actual    <tibble [672 x 2]>
#>  8 FE       actual    <tibble [672 x 2]>
#>  9 AEP      msts-stlm <tibble [672 x 2]>
#> 10 COMED    msts-stlm <tibble [672 x 2]>
#> # ... with 46 more rows

The last but not least, unnest() the series data, and apply the revert back function:

pjm_test %<>%
  unnest(value) %>%
  mutate(cons = rec_revert(cons, rec, provider))
  
pjm_test
#> # A tibble: 37,632 x 4
#>    provider key    datetime             cons
#>    <chr>    <chr>  <dttm>              <dbl>
#>  1 AEP      actual 2018-07-06 00:00:00 15139
#>  2 AEP      actual 2018-07-06 01:00:00 14325
#>  3 AEP      actual 2018-07-06 02:00:00 13685
#>  4 AEP      actual 2018-07-06 03:00:00 13350
#>  5 AEP      actual 2018-07-06 04:00:00 13357
#>  6 AEP      actual 2018-07-06 05:00:00 13671
#>  7 AEP      actual 2018-07-06 06:00:00 14124
#>  8 AEP      actual 2018-07-06 07:00:00 14646
#>  9 AEP      actual 2018-07-06 08:00:00 15294
#> 10 AEP      actual 2018-07-06 09:00:00 15804
#> # ... with 37,622 more rows
…
Finally, we can unnest() the data to get the result:

# unnest actual and forecast
pjm %<>%
  select(provider, actual = fulldata, forecast) %>%
  gather(key, value, -provider) %>%
  unnest(value) %>%
  mutate(cons = rec_revert(cons, rec, provider))
  
pjm
#> # A tibble: 26,880 x 4
#>    provider key    datetime             cons
#>    <chr>    <chr>  <dttm>              <dbl>
#>  1 AEP      actual 2018-04-13 00:00:00 11488
#>  2 AEP      actual 2018-04-13 01:00:00 11100
#>  3 AEP      actual 2018-04-13 02:00:00 10915
#>  4 AEP      actual 2018-04-13 03:00:00 10972
#>  5 AEP      actual 2018-04-13 04:00:00 11204
#>  6 AEP      actual 2018-04-13 05:00:00 11895
#>  7 AEP      actual 2018-04-13 06:00:00 13107
#>  8 AEP      actual 2018-04-13 07:00:00 13681
#>  9 AEP      actual 2018-04-13 08:00:00 13874
#> 10 AEP      actual 2018-04-13 09:00:00 13921
#> # ... with 26,870 more rows
…
