Data Wars: Episode IV
…
The first step in learning the tidy data wrangling is to be familiar with its standard data representation. Before I explain it in detail, let me give you a quick example by printing the iris dataset:

head(iris)
#>   Sepal.Length Sepal.Width Petal.Length Petal.Width Species
#> 1          5.1         3.5          1.4         0.2  setosa
#> 2          4.9         3.0          1.4         0.2  setosa
#> 3          4.7         3.2          1.3         0.2  setosa
#> 4          4.6         3.1          1.5         0.2  setosa
#> 5          5.0         3.6          1.4         0.2  setosa
#> 6          5.4         3.9          1.7         0.4  setosa

and compare the print output with starwars dataset from dplyr:

starwars
#> # A tibble: 87 x 13
#>    name  height  mass hair_color skin_color eye_color birth_year gender
#>    <chr>  <int> <dbl> <chr>      <chr>      <chr>          <dbl> <chr> 
#>  1 Luke~    172    77 blond      fair       blue            19   male  
#>  2 C-3PO    167    75 <NA>       gold       yellow         112   <NA>  
#>  3 R2-D2     96    32 <NA>       white, bl~ red             33   <NA>  
#>  4 Dart~    202   136 none       white      yellow          41.9 male  
#>  5 Leia~    150    49 brown      light      brown           19   female
#>  6 Owen~    178   120 brown, gr~ light      blue            52   male  
#>  7 Beru~    165    75 brown      light      blue            47   female
#>  8 R5-D4     97    32 <NA>       white, red red             NA   <NA>  
#>  9 Bigg~    183    84 black      light      brown           24   male  
#> 10 Obi-~    182    77 auburn, w~ fair       blue-gray       57   male  
#> # ... with 77 more rows, and 5 more variables: homeworld <chr>,
#> #   species <chr>, films <list>, vehicles <list>, starships <list>
…
It will drop its “table” representation and convert the data into a vector, instead of a data.frame with one column. But this is not the case with tibble:

iris_tbl <- as_tibble(iris)

iris_tbl[, "Species"]
#> # A tibble: 150 x 1
#>    Species
#>    <fct>  
#>  1 setosa 
#>  2 setosa 
#>  3 setosa 
#>  4 setosa 
#>  5 setosa 
#>  6 setosa 
#>  7 setosa 
#>  8 setosa 
#>  9 setosa 
#> 10 setosa 
#> # ... with 140 more rows
…
As implied by my description, most of dplyr functions could be described by its names; except mutate, which is very likely to be confusing at the first time.

Those function can be naturally combined with the core aggregation functions:

group_by(): for specifying that following operations should be done by group(s)

summarise(): for obtaining the summarise of the data by the specified group(s).

These functions probably would cover most of your data wrangling tasks; and if done in a proper tidy way, then you’ll find that data wrangling process will be easier. Generally, most of these workflow could be combined through a pipeline using %>% (pipe) operator to make it tidier.

Let’s try out these features using starwars dataset. The first step–and I think the most important step–that we should do is setting our output goal. For this tutorial, let’s try to find out how the height and mass differ across homeworld and gender for human species. So we will transform the dataset from:

starwars
#> # A tibble: 87 x 13
#>    name  height  mass hair_color skin_color eye_color birth_year gender
#>    <chr>  <int> <dbl> <chr>      <chr>      <chr>          <dbl> <chr> 
#>  1 Luke~    172    77 blond      fair       blue            19   male  
#>  2 C-3PO    167    75 <NA>       gold       yellow         112   <NA>  
#>  3 R2-D2     96    32 <NA>       white, bl~ red             33   <NA>  
#>  4 Dart~    202   136 none       white      yellow          41.9 male  
#>  5 Leia~    150    49 brown      light      brown           19   female
#>  6 Owen~    178   120 brown, gr~ light      blue            52   male  
#>  7 Beru~    165    75 brown      light      blue            47   female
#>  8 R5-D4     97    32 <NA>       white, red red             NA   <NA>  
#>  9 Bigg~    183    84 black      light      brown           24   male  
#> 10 Obi-~    182    77 auburn, w~ fair       blue-gray       57   male  
#> # ... with 77 more rows, and 5 more variables: homeworld <chr>,
#> #   species <chr>, films <list>, vehicles <list>, starships <list>

into this format:

# the output goal:

#> # A tibble: 21 x 5
#>    homeworld    gender  mass height   bmi
#>    <chr>        <chr>  <dbl>  <dbl> <dbl>
#>  1 Bestine IV   male   110     180   61.1
#>  2 Tatooine     male   100.    184.  54.0
#>  3 <NA>         male    89     193   46.1
#>  4 Tatooine     female  75     164   45.5
#>  5 Bespin       male    79     175   45.1
#>  6 Naboo        male    80     178.  45.0
#>  7 Corellia     male    78.5   175   44.9
#>  8 Haruun Kal   male    84     188   44.7
#>  9 Socorro      male    79     177   44.6
#> 10 Concord Dawn male    79     183   43.2
#> # ... with 11 more rows

Column subsetting using select()

select() is probably the first function you will call in every data manipulation tasks. By using select(), you can narrow down the number variables to fewer variables–which are what you truly need.

The select() usage (and also every core functions in dplyr) is very straighforward. You just need to pass the dataset and select the column name you want to select:

select(starwars, name)
#> # A tibble: 87 x 1
#>    name              
#>    <chr>             
#>  1 Luke Skywalker    
#>  2 C-3PO             
#>  3 R2-D2             
#>  4 Darth Vader       
#>  5 Leia Organa       
#>  6 Owen Lars         
#>  7 Beru Whitesun lars
#>  8 R5-D4             
#>  9 Biggs Darklighter 
#> 10 Obi-Wan Kenobi    
#> # ... with 77 more rows

It’s very easy right? Before we continue to our objective, there are some tips you need to consider.

Chaining operation using %>%

When we doing a complex data manipulation using dplyr, I suggest to use %>% operator to make our code tidier:

starwars %>%
  select(name)
#> # A tibble: 87 x 1
#>    name              
#>    <chr>             
#>  1 Luke Skywalker    
#>  2 C-3PO             
#>  3 R2-D2             
#>  4 Darth Vader       
#>  5 Leia Organa       
#>  6 Owen Lars         
#>  7 Beru Whitesun lars
#>  8 R5-D4             
#>  9 Biggs Darklighter 
#> 10 Obi-Wan Kenobi    
#> # ... with 77 more rows
…
The glimpse() function is practically the simplified version of str(); but it only print the most general information like the variable names, class, etc. Another alternative is to use the base colnames(), but it doesn’t provide additional information like glimpse(), so I suggest to use the later.

From glimpse() output, now we have the list of variable names and can be sure that we have to select species, homeworld, gender, mass, height:

starwars %>%
  select(name, species, homeworld, gender, mass, height)
#> # A tibble: 87 x 6
#>    name               species homeworld gender  mass height
#>    <chr>              <chr>   <chr>     <chr>  <dbl>  <int>
#>  1 Luke Skywalker     Human   Tatooine  male      77    172
#>  2 C-3PO              Droid   Tatooine  <NA>      75    167
#>  3 R2-D2              Droid   Naboo     <NA>      32     96
#>  4 Darth Vader        Human   Tatooine  male     136    202
#>  5 Leia Organa        Human   Alderaan  female    49    150
#>  6 Owen Lars          Human   Tatooine  male     120    178
#>  7 Beru Whitesun lars Human   Tatooine  female    75    165
#>  8 R5-D4              Droid   Tatooine  <NA>      32     97
#>  9 Biggs Darklighter  Human   Tatooine  male      84    183
#> 10 Obi-Wan Kenobi     Human   Stewjon   male      77    182
#> # ... with 77 more rows
…
Before I explain the details, let’s take a look at the first 5 mass value from starwars:

head(starwars$mass)
#> [1]  77  75  32 136  49 120

If we test the condition of <= 50 to above data, we will actually get this output:

head(starwars$mass) <= 50
#> [1] FALSE FALSE  TRUE FALSE  TRUE FALSE

So basically filtering condition is picking up rows with the TRUE value; and it will discard the rest. Based on this mechanism, we could also use other helper functions to test a condition, e.g., when we want to see rows with NA values, we can use is.na() function:

filter(starwars, is.na(mass))
#> # A tibble: 28 x 13
#>    name  height  mass hair_color skin_color eye_color birth_year gender
#>    <chr>  <int> <dbl> <chr>      <chr>      <chr>          <dbl> <chr> 
#>  1 Wilh~    180    NA auburn, g~ fair       blue              64 male  
#>  2 Mon ~    150    NA auburn     fair       blue              48 female
#>  3 Arve~     NA    NA brown      fair       brown             NA male  
#>  4 Fini~    170    NA blond      fair       blue              91 male  
#>  5 Rugo~    206    NA none       green      orange            NA male  
#>  6 Ric ~    183    NA brown      fair       blue              NA male  
#>  7 Watto    137    NA black      blue, grey yellow            NA male  
#>  8 Quar~    183    NA black      dark       brown             62 male  
#>  9 Shmi~    163    NA black      fair       brown             72 female
#> 10 Bib ~    180    NA none       pale       pink              NA male  
#> # ... with 18 more rows, and 5 more variables: homeworld <chr>,
#> #   species <chr>, films <list>, vehicles <list>, starships <list>

or if we want to keep observations with non-NA value, then we could create a negation using !:

filter(starwars, !is.na(mass))
#> # A tibble: 59 x 13
#>    name  height  mass hair_color skin_color eye_color birth_year gender
#>    <chr>  <int> <dbl> <chr>      <chr>      <chr>          <dbl> <chr> 
#>  1 Luke~    172    77 blond      fair       blue            19   male  
#>  2 C-3PO    167    75 <NA>       gold       yellow         112   <NA>  
#>  3 R2-D2     96    32 <NA>       white, bl~ red             33   <NA>  
#>  4 Dart~    202   136 none       white      yellow          41.9 male  
#>  5 Leia~    150    49 brown      light      brown           19   female
#>  6 Owen~    178   120 brown, gr~ light      blue            52   male  
#>  7 Beru~    165    75 brown      light      blue            47   female
#>  8 R5-D4     97    32 <NA>       white, red red             NA   <NA>  
#>  9 Bigg~    183    84 black      light      brown           24   male  
#> 10 Obi-~    182    77 auburn, w~ fair       blue-gray       57   male  
#> # ... with 49 more rows, and 5 more variables: homeworld <chr>,
#> #   species <chr>, films <list>, vehicles <list>, starships <list>
…
Which shows that it’s actually "Human". For numerical variables, you can use summary() to help you quick-check the value range:

summary(starwars$height)
#>    Min. 1st Qu.  Median    Mean 3rd Qu.    Max.    NA's 
#>    66.0   167.0   180.0   174.4   191.0   264.0       6

After we quick-check the values within our variable of interest, it’s safe now to call filter() function:

starwars %>%
  select(name, species, homeworld, gender, mass, height) %>%
  filter(species == "Human")
#> # A tibble: 35 x 6
#>    name               species homeworld gender  mass height
#>    <chr>              <chr>   <chr>     <chr>  <dbl>  <int>
#>  1 Luke Skywalker     Human   Tatooine  male      77    172
#>  2 Darth Vader        Human   Tatooine  male     136    202
#>  3 Leia Organa        Human   Alderaan  female    49    150
#>  4 Owen Lars          Human   Tatooine  male     120    178
#>  5 Beru Whitesun lars Human   Tatooine  female    75    165
#>  6 Biggs Darklighter  Human   Tatooine  male      84    183
#>  7 Obi-Wan Kenobi     Human   Stewjon   male      77    182
#>  8 Anakin Skywalker   Human   Tatooine  male      84    188
#>  9 Wilhuff Tarkin     Human   Eriadu    male      NA    180
#> 10 Han Solo           Human   Corellia  male      80    180
#> # ... with 25 more rows

Manipulating variables using mutate()

When I mentioned mutate() terms, most of you that are not familiar with dplyr probably not sure on its meaning. This function is basically helping us to manipulating the variables inside our dataframe. For example, you could change the units of mass and height index:

mutate(starwars, mass = mass * 100, height = height / 100)
#> # A tibble: 87 x 13
#>    name  height  mass hair_color skin_color eye_color birth_year gender
#>    <chr>  <dbl> <dbl> <chr>      <chr>      <chr>          <dbl> <chr> 
#>  1 Luke~   1.72  7700 blond      fair       blue            19   male  
#>  2 C-3PO   1.67  7500 <NA>       gold       yellow         112   <NA>  
#>  3 R2-D2   0.96  3200 <NA>       white, bl~ red             33   <NA>  
#>  4 Dart~   2.02 13600 none       white      yellow          41.9 male  
#>  5 Leia~   1.5   4900 brown      light      brown           19   female
#>  6 Owen~   1.78 12000 brown, gr~ light      blue            52   male  
#>  7 Beru~   1.65  7500 brown      light      blue            47   female
#>  8 R5-D4   0.97  3200 <NA>       white, red red             NA   <NA>  
#>  9 Bigg~   1.83  8400 black      light      brown           24   male  
#> 10 Obi-~   1.82  7700 auburn, w~ fair       blue-gray       57   male  
#> # ... with 77 more rows, and 5 more variables: homeworld <chr>,
#> #   species <chr>, films <list>, vehicles <list>, starships <list>

But it doesn’t limited to manipulating the existing variables; you could also make a new variable using this function. Say, we want to add Body Mass Index (BMI) to our current analysis, we could create it using mutate():

starwars %>%
  select(name, species, homeworld, gender, mass, height) %>%
  filter(species == "Human") %>%
  mutate(bmi = mass / height * 100)
#> # A tibble: 35 x 7
#>    name               species homeworld gender  mass height   bmi
#>    <chr>              <chr>   <chr>     <chr>  <dbl>  <int> <dbl>
#>  1 Luke Skywalker     Human   Tatooine  male      77    172  44.8
#>  2 Darth Vader        Human   Tatooine  male     136    202  67.3
#>  3 Leia Organa        Human   Alderaan  female    49    150  32.7
#>  4 Owen Lars          Human   Tatooine  male     120    178  67.4
#>  5 Beru Whitesun lars Human   Tatooine  female    75    165  45.5
#>  6 Biggs Darklighter  Human   Tatooine  male      84    183  45.9
#>  7 Obi-Wan Kenobi     Human   Stewjon   male      77    182  42.3
#>  8 Anakin Skywalker   Human   Tatooine  male      84    188  44.7
#>  9 Wilhuff Tarkin     Human   Eriadu    male      NA    180  NA  
#> 10 Han Solo           Human   Corellia  male      80    180  44.4
#> # ... with 25 more rows

This function is very versatile, so play around with your creativity here :sunglasses:

Data aggregation using group_by and summarise

We are reaching the final parts! Let’s recall the part of our objective that we haven’t done yet: “across the homeworld and gender”. This particular phrase is indicating that we want each of our observation to representing its homeworld and gender instead of each character’s name like what we currently have. We can achieve this using group_by() and summarise() function.

To declare a group, you just need to specify the name of variables that you want to set as group identifier:

starwars %>%
  select(name, species, homeworld, gender, mass, height) %>%
  filter(species == "Human") %>%
  mutate(bmi = mass / height * 100) %>%
  group_by(homeworld, gender)
#> # A tibble: 35 x 7
#> # Groups:   homeworld, gender [21]
#>    name               species homeworld gender  mass height   bmi
#>    <chr>              <chr>   <chr>     <chr>  <dbl>  <int> <dbl>
#>  1 Luke Skywalker     Human   Tatooine  male      77    172  44.8
#>  2 Darth Vader        Human   Tatooine  male     136    202  67.3
#>  3 Leia Organa        Human   Alderaan  female    49    150  32.7
#>  4 Owen Lars          Human   Tatooine  male     120    178  67.4
#>  5 Beru Whitesun lars Human   Tatooine  female    75    165  45.5
#>  6 Biggs Darklighter  Human   Tatooine  male      84    183  45.9
#>  7 Obi-Wan Kenobi     Human   Stewjon   male      77    182  42.3
#>  8 Anakin Skywalker   Human   Tatooine  male      84    188  44.7
#>  9 Wilhuff Tarkin     Human   Eriadu    male      NA    180  NA  
#> 10 Han Solo           Human   Corellia  male      80    180  44.4
#> # ... with 25 more rows
…
After we set the group, we can use summarise() to do the aggregation. This function is almost identic to how mutate works, but the output will be aggregated value by the group we specified; note that if we don’t specify any group, then it will aggregate the value to one observation that representing our dataset.

Let’s try to take the mean of height, mass, and bmi variables:

starwars %>%
  select(name, species, homeworld, gender, mass, height) %>%
  filter(species == "Human") %>%
  mutate(bmi = mass / height * 100) %>%
  group_by(homeworld, gender) %>%
  summarise(
    mass = mean(mass, na.rm = TRUE), # use na.rm since there are
    height = mean(height, na.rm = TRUE), # some missing values
    bmi = mean(bmi, na.rm = TRUE)
  )
#> # A tibble: 21 x 5
#> # Groups:   homeworld [16]
#>    homeworld    gender  mass height   bmi
#>    <chr>        <chr>  <dbl>  <dbl> <dbl>
#>  1 Alderaan     female  49     150   32.7
#>  2 Alderaan     male    79     190.  42.0
#>  3 Bespin       male    79     175   45.1
#>  4 Bestine IV   male   110     180   61.1
#>  5 Chandrila    female NaN     150  NaN  
#>  6 Concord Dawn male    79     183   43.2
#>  7 Corellia     male    78.5   175   44.9
#>  8 Coruscant    female NaN     167  NaN  
#>  9 Coruscant    male   NaN     170  NaN  
#> 10 Eriadu       male   NaN     180  NaN  
#> # ... with 11 more rows

When we done with group operations, don’t forget to set the group declaration to off. The most straighforward ways to do this is by passing the result to ungroup():

starwars %>%
  select(name, species, homeworld, gender, mass, height) %>%
  filter(species == "Human") %>%
  mutate(bmi = mass / height * 100) %>%
  group_by(homeworld, gender) %>%
  summarise(
    mass = mean(mass, na.rm = TRUE),
    height = mean(height, na.rm = TRUE),
    bmi = mean(bmi, na.rm = TRUE)
  ) %>%
  ungroup()
#> # A tibble: 21 x 5
#>    homeworld    gender  mass height   bmi
#>    <chr>        <chr>  <dbl>  <dbl> <dbl>
#>  1 Alderaan     female  49     150   32.7
#>  2 Alderaan     male    79     190.  42.0
#>  3 Bespin       male    79     175   45.1
#>  4 Bestine IV   male   110     180   61.1
#>  5 Chandrila    female NaN     150  NaN  
#>  6 Concord Dawn male    79     183   43.2
#>  7 Corellia     male    78.5   175   44.9
#>  8 Coruscant    female NaN     167  NaN  
#>  9 Coruscant    male   NaN     170  NaN  
#> 10 Eriadu       male   NaN     180  NaN  
#> # ... with 11 more rows
…
Fortunately, dplyr provided arrange() function for this specific task. By default, this function will arrange the specified variable in ascending mode:

starwars %>%
  select(name, species, homeworld, gender, mass, height) %>%
  filter(species == "Human") %>%
  mutate(bmi = mass / height * 100) %>%
  group_by(homeworld, gender) %>%
  summarise(
    mass = mean(mass, na.rm = TRUE),
    height = mean(height, na.rm = TRUE),
    bmi = mean(bmi, na.rm = TRUE)
  ) %>%
  ungroup() %>%
  arrange(bmi)
#> # A tibble: 21 x 5
#>    homeworld    gender  mass height   bmi
#>    <chr>        <chr>  <dbl>  <dbl> <dbl>
#>  1 Naboo        female  45     162.  27.3
#>  2 Alderaan     female  49     150   32.7
#>  3 Serenno      male    80     193   41.5
#>  4 Alderaan     male    79     190.  42.0
#>  5 Stewjon      male    77     182   42.3
#>  6 Kamino       male    78.2   183   42.7
#>  7 Concord Dawn male    79     183   43.2
#>  8 Socorro      male    79     177   44.6
#>  9 Haruun Kal   male    84     188   44.7
#> 10 Corellia     male    78.5   175   44.9
#> # ... with 11 more rows
…
