Rplicate Series: Gone Baby Gone
…
Next, we will combine the data while also removing NAs and arrange the data descendingly based on population:

df <- data_tfr %>% 
  left_join(data_pop) %>% 
  left_join(data_gdp) %>%  
  na.omit() %>%                 
  rename(country = `Country Name`) %>%  
  arrange(desc(pop)) 

# quick check
head(df, 40)

#> # A tibble: 40 x 4
#>    country                      tfr        pop    gdp
#>    <chr>                      <dbl>      <dbl>  <dbl>
#>  1 World                       2.43 7510990456 10769.
#>  2 IDA & IBRD total            2.55 6335039629  4859.
#>  3 Low & middle income         2.56 6306560891  4743.
#>  4 Middle income               2.33 5619111361  5229.
#>  5 IBRD only                   2.07 4731120193  6052.
#>  6 Early-demographic dividend  2.51 3207188541  3545.
#>  7 Lower middle income         2.76 2981420591  2187.
#>  8 Upper middle income         1.84 2637690770  8663.
#>  9 East Asia & Pacific         1.80 2314202003 10333.
#> 10 Late-demographic dividend   1.71 2276319334  8943.
#> # ... with 30 more rows
…
